^E:\---VS 2017---\MISHA_STEP_II\HOMEWORK\10.07.19\10.07.19\DEBUG\SOURCE.OBJ
E:\---VS 2017---\MISHA_STEP_II\HOMEWORK\10.07.19\DEBUG\10.07.19.EXE
E:\---VS 2017---\MISHA_STEP_II\HOMEWORK\10.07.19\DEBUG\10.07.19.ILK
E:\---VS 2017---\MISHA_STEP_II\HOMEWORK\10.07.19\DEBUG\10.07.19.PDB
