^D:\POLISHCHUK_STEP\CLASSWORK\06.06.19\06.06.19\DEBUG\HEADREALIZ.OBJ|D:\POLISHCHUK_STEP\CLASSWORK\06.06.19\06.06.19\DEBUG\SOURCE.OBJ
D:\POLISHCHUK_STEP\CLASSWORK\06.06.19\DEBUG\06.06.19.EXE
D:\POLISHCHUK_STEP\CLASSWORK\06.06.19\DEBUG\06.06.19.ILK
D:\POLISHCHUK_STEP\CLASSWORK\06.06.19\DEBUG\06.06.19.PDB
