^E:\---VS 2017---\MISHA_STEP_II\CLASSWORK\PROJECT2\ARRREALIZ.CPP|E:\---VS 2017---\MISHA_STEP_II\CLASSWORK\PROJECT2\SOURCE.CPP
E:\---VS 2017---\MISHA_STEP_II\CLASSWORK\PROJECT2\DEBUG\VC141.PDB
E:\---VS 2017---\MISHA_STEP_II\CLASSWORK\PROJECT2\DEBUG\VC141.IDB
E:\---VS 2017---\MISHA_STEP_II\CLASSWORK\PROJECT2\DEBUG\SOURCE.OBJ
^E:\---VS 2017---\MISHA_STEP_II\CLASSWORK\PROJECT2\SOURCE.CPP
E:\---VS 2017---\MISHA_STEP_II\CLASSWORK\PROJECT2\DEBUG\SOURCE.OBJ
^E:\---VS 2017---\MISHA_STEP_II\CLASSWORK\PROJECT2\ARRREALIZ.CPP
E:\---VS 2017---\MISHA_STEP_II\CLASSWORK\PROJECT2\DEBUG\VC141.PDB
E:\---VS 2017---\MISHA_STEP_II\CLASSWORK\PROJECT2\DEBUG\VC141.IDB
E:\---VS 2017---\MISHA_STEP_II\CLASSWORK\PROJECT2\DEBUG\ARRREALIZ.OBJ
